%!PS-Adobe-2.0
%%Title: out.eps
%%Creator: gnuplot 4.2 patchlevel 6 
%%CreationDate: Mon May 26 13:33:36 2014
%%DocumentFonts: (atend)
%%BoundingBox: 50 50 554 770
%%Orientation: Landscape
%%Pages: (atend)
%%EndComments
%%BeginProlog
/gnudict 256 dict def
gnudict begin
%
% The following 6 true/false flags may be edited by hand if required
% The unit line width may also be changed
%
/Color false def
/Blacktext false def
/Solid false def
/Dashlength 1 def
/Landscape true def
/Level1 false def
/Rounded false def
/TransparentPatterns false def
/gnulinewidth 5.000 def
/userlinewidth gnulinewidth def
%
/vshift -46 def
/dl1 {
  10.0 Dashlength mul mul
  Rounded { currentlinewidth 0.75 mul sub dup 0 le { pop 0.01 } if } if
} def
/dl2 {
  10.0 Dashlength mul mul
  Rounded { currentlinewidth 0.75 mul add } if
} def
/hpt_ 31.5 def
/vpt_ 31.5 def
/hpt hpt_ def
/vpt vpt_ def
Level1 {} {
/SDict 10 dict def
systemdict /pdfmark known not {
  userdict /pdfmark systemdict /cleartomark get put
} if
SDict begin [
  /Title (out.eps)
  /Subject (gnuplot plot)
  /Creator (gnuplot 4.2 patchlevel 6 )
  /Author (gkastel)
%  /Producer (gnuplot)
%  /Keywords ()
  /CreationDate (Mon May 26 13:33:36 2014)
  /DOCINFO pdfmark
end
} ifelse
%
% Gnuplot Prolog Version 4.2 (August 2006)
%
/M {moveto} bind def
/L {lineto} bind def
/R {rmoveto} bind def
/V {rlineto} bind def
/N {newpath moveto} bind def
/Z {closepath} bind def
/C {setrgbcolor} bind def
/f {rlineto fill} bind def
/vpt2 vpt 2 mul def
/hpt2 hpt 2 mul def
/Lshow {currentpoint stroke M 0 vshift R 
	Blacktext {gsave 0 setgray show grestore} {show} ifelse} def
/Rshow {currentpoint stroke M dup stringwidth pop neg vshift R
	Blacktext {gsave 0 setgray show grestore} {show} ifelse} def
/Cshow {currentpoint stroke M dup stringwidth pop -2 div vshift R 
	Blacktext {gsave 0 setgray show grestore} {show} ifelse} def
/UP {dup vpt_ mul /vpt exch def hpt_ mul /hpt exch def
  /hpt2 hpt 2 mul def /vpt2 vpt 2 mul def} def
/DL {Color {setrgbcolor Solid {pop []} if 0 setdash}
 {pop pop pop 0 setgray Solid {pop []} if 0 setdash} ifelse} def
/BL {stroke userlinewidth 2 mul setlinewidth
	Rounded {1 setlinejoin 1 setlinecap} if} def
/AL {stroke userlinewidth 2 div setlinewidth
	Rounded {1 setlinejoin 1 setlinecap} if} def
/UL {dup gnulinewidth mul /userlinewidth exch def
	dup 1 lt {pop 1} if 10 mul /udl exch def} def
/PL {stroke userlinewidth setlinewidth
	Rounded {1 setlinejoin 1 setlinecap} if} def
% Default Line colors
/LCw {1 1 1} def
/LCb {0 0 0} def
/LCa {0 0 0} def
/LC0 {1 0 0} def
/LC1 {0 1 0} def
/LC2 {0 0 1} def
/LC3 {1 0 1} def
/LC4 {0 1 1} def
/LC5 {1 1 0} def
/LC6 {0 0 0} def
/LC7 {1 0.3 0} def
/LC8 {0.5 0.5 0.5} def
% Default Line Types
/LTw {PL [] 1 setgray} def
/LTb {BL [] LCb DL} def
/LTa {AL [1 udl mul 2 udl mul] 0 setdash LCa setrgbcolor} def
/LT0 {PL [] LC0 DL} def
/LT1 {PL [4 dl1 2 dl2] LC1 DL} def
/LT2 {PL [2 dl1 3 dl2] LC2 DL} def
/LT3 {PL [1 dl1 1.5 dl2] LC3 DL} def
/LT4 {PL [6 dl1 2 dl2 1 dl1 2 dl2] LC4 DL} def
/LT5 {PL [3 dl1 3 dl2 1 dl1 3 dl2] LC5 DL} def
/LT6 {PL [2 dl1 2 dl2 2 dl1 6 dl2] LC6 DL} def
/LT7 {PL [1 dl1 2 dl2 6 dl1 2 dl2 1 dl1 2 dl2] LC7 DL} def
/LT8 {PL [2 dl1 2 dl2 2 dl1 2 dl2 2 dl1 2 dl2 2 dl1 4 dl2] LC8 DL} def
/Pnt {stroke [] 0 setdash gsave 1 setlinecap M 0 0 V stroke grestore} def
/Dia {stroke [] 0 setdash 2 copy vpt add M
  hpt neg vpt neg V hpt vpt neg V
  hpt vpt V hpt neg vpt V closepath stroke
  Pnt} def
/Pls {stroke [] 0 setdash vpt sub M 0 vpt2 V
  currentpoint stroke M
  hpt neg vpt neg R hpt2 0 V stroke
 } def
/Box {stroke [] 0 setdash 2 copy exch hpt sub exch vpt add M
  0 vpt2 neg V hpt2 0 V 0 vpt2 V
  hpt2 neg 0 V closepath stroke
  Pnt} def
/Crs {stroke [] 0 setdash exch hpt sub exch vpt add M
  hpt2 vpt2 neg V currentpoint stroke M
  hpt2 neg 0 R hpt2 vpt2 V stroke} def
/TriU {stroke [] 0 setdash 2 copy vpt 1.12 mul add M
  hpt neg vpt -1.62 mul V
  hpt 2 mul 0 V
  hpt neg vpt 1.62 mul V closepath stroke
  Pnt} def
/Star {2 copy Pls Crs} def
/BoxF {stroke [] 0 setdash exch hpt sub exch vpt add M
  0 vpt2 neg V hpt2 0 V 0 vpt2 V
  hpt2 neg 0 V closepath fill} def
/TriUF {stroke [] 0 setdash vpt 1.12 mul add M
  hpt neg vpt -1.62 mul V
  hpt 2 mul 0 V
  hpt neg vpt 1.62 mul V closepath fill} def
/TriD {stroke [] 0 setdash 2 copy vpt 1.12 mul sub M
  hpt neg vpt 1.62 mul V
  hpt 2 mul 0 V
  hpt neg vpt -1.62 mul V closepath stroke
  Pnt} def
/TriDF {stroke [] 0 setdash vpt 1.12 mul sub M
  hpt neg vpt 1.62 mul V
  hpt 2 mul 0 V
  hpt neg vpt -1.62 mul V closepath fill} def
/DiaF {stroke [] 0 setdash vpt add M
  hpt neg vpt neg V hpt vpt neg V
  hpt vpt V hpt neg vpt V closepath fill} def
/Pent {stroke [] 0 setdash 2 copy gsave
  translate 0 hpt M 4 {72 rotate 0 hpt L} repeat
  closepath stroke grestore Pnt} def
/PentF {stroke [] 0 setdash gsave
  translate 0 hpt M 4 {72 rotate 0 hpt L} repeat
  closepath fill grestore} def
/Circle {stroke [] 0 setdash 2 copy
  hpt 0 360 arc stroke Pnt} def
/CircleF {stroke [] 0 setdash hpt 0 360 arc fill} def
/C0 {BL [] 0 setdash 2 copy moveto vpt 90 450 arc} bind def
/C1 {BL [] 0 setdash 2 copy moveto
	2 copy vpt 0 90 arc closepath fill
	vpt 0 360 arc closepath} bind def
/C2 {BL [] 0 setdash 2 copy moveto
	2 copy vpt 90 180 arc closepath fill
	vpt 0 360 arc closepath} bind def
/C3 {BL [] 0 setdash 2 copy moveto
	2 copy vpt 0 180 arc closepath fill
	vpt 0 360 arc closepath} bind def
/C4 {BL [] 0 setdash 2 copy moveto
	2 copy vpt 180 270 arc closepath fill
	vpt 0 360 arc closepath} bind def
/C5 {BL [] 0 setdash 2 copy moveto
	2 copy vpt 0 90 arc
	2 copy moveto
	2 copy vpt 180 270 arc closepath fill
	vpt 0 360 arc} bind def
/C6 {BL [] 0 setdash 2 copy moveto
	2 copy vpt 90 270 arc closepath fill
	vpt 0 360 arc closepath} bind def
/C7 {BL [] 0 setdash 2 copy moveto
	2 copy vpt 0 270 arc closepath fill
	vpt 0 360 arc closepath} bind def
/C8 {BL [] 0 setdash 2 copy moveto
	2 copy vpt 270 360 arc closepath fill
	vpt 0 360 arc closepath} bind def
/C9 {BL [] 0 setdash 2 copy moveto
	2 copy vpt 270 450 arc closepath fill
	vpt 0 360 arc closepath} bind def
/C10 {BL [] 0 setdash 2 copy 2 copy moveto vpt 270 360 arc closepath fill
	2 copy moveto
	2 copy vpt 90 180 arc closepath fill
	vpt 0 360 arc closepath} bind def
/C11 {BL [] 0 setdash 2 copy moveto
	2 copy vpt 0 180 arc closepath fill
	2 copy moveto
	2 copy vpt 270 360 arc closepath fill
	vpt 0 360 arc closepath} bind def
/C12 {BL [] 0 setdash 2 copy moveto
	2 copy vpt 180 360 arc closepath fill
	vpt 0 360 arc closepath} bind def
/C13 {BL [] 0 setdash 2 copy moveto
	2 copy vpt 0 90 arc closepath fill
	2 copy moveto
	2 copy vpt 180 360 arc closepath fill
	vpt 0 360 arc closepath} bind def
/C14 {BL [] 0 setdash 2 copy moveto
	2 copy vpt 90 360 arc closepath fill
	vpt 0 360 arc} bind def
/C15 {BL [] 0 setdash 2 copy vpt 0 360 arc closepath fill
	vpt 0 360 arc closepath} bind def
/Rec {newpath 4 2 roll moveto 1 index 0 rlineto 0 exch rlineto
	neg 0 rlineto closepath} bind def
/Square {dup Rec} bind def
/Bsquare {vpt sub exch vpt sub exch vpt2 Square} bind def
/S0 {BL [] 0 setdash 2 copy moveto 0 vpt rlineto BL Bsquare} bind def
/S1 {BL [] 0 setdash 2 copy vpt Square fill Bsquare} bind def
/S2 {BL [] 0 setdash 2 copy exch vpt sub exch vpt Square fill Bsquare} bind def
/S3 {BL [] 0 setdash 2 copy exch vpt sub exch vpt2 vpt Rec fill Bsquare} bind def
/S4 {BL [] 0 setdash 2 copy exch vpt sub exch vpt sub vpt Square fill Bsquare} bind def
/S5 {BL [] 0 setdash 2 copy 2 copy vpt Square fill
	exch vpt sub exch vpt sub vpt Square fill Bsquare} bind def
/S6 {BL [] 0 setdash 2 copy exch vpt sub exch vpt sub vpt vpt2 Rec fill Bsquare} bind def
/S7 {BL [] 0 setdash 2 copy exch vpt sub exch vpt sub vpt vpt2 Rec fill
	2 copy vpt Square fill Bsquare} bind def
/S8 {BL [] 0 setdash 2 copy vpt sub vpt Square fill Bsquare} bind def
/S9 {BL [] 0 setdash 2 copy vpt sub vpt vpt2 Rec fill Bsquare} bind def
/S10 {BL [] 0 setdash 2 copy vpt sub vpt Square fill 2 copy exch vpt sub exch vpt Square fill
	Bsquare} bind def
/S11 {BL [] 0 setdash 2 copy vpt sub vpt Square fill 2 copy exch vpt sub exch vpt2 vpt Rec fill
	Bsquare} bind def
/S12 {BL [] 0 setdash 2 copy exch vpt sub exch vpt sub vpt2 vpt Rec fill Bsquare} bind def
/S13 {BL [] 0 setdash 2 copy exch vpt sub exch vpt sub vpt2 vpt Rec fill
	2 copy vpt Square fill Bsquare} bind def
/S14 {BL [] 0 setdash 2 copy exch vpt sub exch vpt sub vpt2 vpt Rec fill
	2 copy exch vpt sub exch vpt Square fill Bsquare} bind def
/S15 {BL [] 0 setdash 2 copy Bsquare fill Bsquare} bind def
/D0 {gsave translate 45 rotate 0 0 S0 stroke grestore} bind def
/D1 {gsave translate 45 rotate 0 0 S1 stroke grestore} bind def
/D2 {gsave translate 45 rotate 0 0 S2 stroke grestore} bind def
/D3 {gsave translate 45 rotate 0 0 S3 stroke grestore} bind def
/D4 {gsave translate 45 rotate 0 0 S4 stroke grestore} bind def
/D5 {gsave translate 45 rotate 0 0 S5 stroke grestore} bind def
/D6 {gsave translate 45 rotate 0 0 S6 stroke grestore} bind def
/D7 {gsave translate 45 rotate 0 0 S7 stroke grestore} bind def
/D8 {gsave translate 45 rotate 0 0 S8 stroke grestore} bind def
/D9 {gsave translate 45 rotate 0 0 S9 stroke grestore} bind def
/D10 {gsave translate 45 rotate 0 0 S10 stroke grestore} bind def
/D11 {gsave translate 45 rotate 0 0 S11 stroke grestore} bind def
/D12 {gsave translate 45 rotate 0 0 S12 stroke grestore} bind def
/D13 {gsave translate 45 rotate 0 0 S13 stroke grestore} bind def
/D14 {gsave translate 45 rotate 0 0 S14 stroke grestore} bind def
/D15 {gsave translate 45 rotate 0 0 S15 stroke grestore} bind def
/DiaE {stroke [] 0 setdash vpt add M
  hpt neg vpt neg V hpt vpt neg V
  hpt vpt V hpt neg vpt V closepath stroke} def
/BoxE {stroke [] 0 setdash exch hpt sub exch vpt add M
  0 vpt2 neg V hpt2 0 V 0 vpt2 V
  hpt2 neg 0 V closepath stroke} def
/TriUE {stroke [] 0 setdash vpt 1.12 mul add M
  hpt neg vpt -1.62 mul V
  hpt 2 mul 0 V
  hpt neg vpt 1.62 mul V closepath stroke} def
/TriDE {stroke [] 0 setdash vpt 1.12 mul sub M
  hpt neg vpt 1.62 mul V
  hpt 2 mul 0 V
  hpt neg vpt -1.62 mul V closepath stroke} def
/PentE {stroke [] 0 setdash gsave
  translate 0 hpt M 4 {72 rotate 0 hpt L} repeat
  closepath stroke grestore} def
/CircE {stroke [] 0 setdash 
  hpt 0 360 arc stroke} def
/Opaque {gsave closepath 1 setgray fill grestore 0 setgray closepath} def
/DiaW {stroke [] 0 setdash vpt add M
  hpt neg vpt neg V hpt vpt neg V
  hpt vpt V hpt neg vpt V Opaque stroke} def
/BoxW {stroke [] 0 setdash exch hpt sub exch vpt add M
  0 vpt2 neg V hpt2 0 V 0 vpt2 V
  hpt2 neg 0 V Opaque stroke} def
/TriUW {stroke [] 0 setdash vpt 1.12 mul add M
  hpt neg vpt -1.62 mul V
  hpt 2 mul 0 V
  hpt neg vpt 1.62 mul V Opaque stroke} def
/TriDW {stroke [] 0 setdash vpt 1.12 mul sub M
  hpt neg vpt 1.62 mul V
  hpt 2 mul 0 V
  hpt neg vpt -1.62 mul V Opaque stroke} def
/PentW {stroke [] 0 setdash gsave
  translate 0 hpt M 4 {72 rotate 0 hpt L} repeat
  Opaque stroke grestore} def
/CircW {stroke [] 0 setdash 
  hpt 0 360 arc Opaque stroke} def
/BoxFill {gsave Rec 1 setgray fill grestore} def
/Density {
  /Fillden exch def
  currentrgbcolor
  /ColB exch def /ColG exch def /ColR exch def
  /ColR ColR Fillden mul Fillden sub 1 add def
  /ColG ColG Fillden mul Fillden sub 1 add def
  /ColB ColB Fillden mul Fillden sub 1 add def
  ColR ColG ColB setrgbcolor} def
/BoxColFill {gsave Rec PolyFill} def
/PolyFill {gsave Density fill grestore grestore} def
/h {rlineto rlineto rlineto gsave closepath fill grestore} bind def
%
% PostScript Level 1 Pattern Fill routine for rectangles
% Usage: x y w h s a XX PatternFill
%	x,y = lower left corner of box to be filled
%	w,h = width and height of box
%	  a = angle in degrees between lines and x-axis
%	 XX = 0/1 for no/yes cross-hatch
%
/PatternFill {gsave /PFa [ 9 2 roll ] def
  PFa 0 get PFa 2 get 2 div add PFa 1 get PFa 3 get 2 div add translate
  PFa 2 get -2 div PFa 3 get -2 div PFa 2 get PFa 3 get Rec
  gsave 1 setgray fill grestore clip
  currentlinewidth 0.5 mul setlinewidth
  /PFs PFa 2 get dup mul PFa 3 get dup mul add sqrt def
  0 0 M PFa 5 get rotate PFs -2 div dup translate
  0 1 PFs PFa 4 get div 1 add floor cvi
	{PFa 4 get mul 0 M 0 PFs V} for
  0 PFa 6 get ne {
	0 1 PFs PFa 4 get div 1 add floor cvi
	{PFa 4 get mul 0 2 1 roll M PFs 0 V} for
 } if
  stroke grestore} def
%
/languagelevel where
 {pop languagelevel} {1} ifelse
 2 lt
	{/InterpretLevel1 true def}
	{/InterpretLevel1 Level1 def}
 ifelse
%
% PostScript level 2 pattern fill definitions
%
/Level2PatternFill {
/Tile8x8 {/PaintType 2 /PatternType 1 /TilingType 1 /BBox [0 0 8 8] /XStep 8 /YStep 8}
	bind def
/KeepColor {currentrgbcolor [/Pattern /DeviceRGB] setcolorspace} bind def
<< Tile8x8
 /PaintProc {0.5 setlinewidth pop 0 0 M 8 8 L 0 8 M 8 0 L stroke} 
>> matrix makepattern
/Pat1 exch def
<< Tile8x8
 /PaintProc {0.5 setlinewidth pop 0 0 M 8 8 L 0 8 M 8 0 L stroke
	0 4 M 4 8 L 8 4 L 4 0 L 0 4 L stroke}
>> matrix makepattern
/Pat2 exch def
<< Tile8x8
 /PaintProc {0.5 setlinewidth pop 0 0 M 0 8 L
	8 8 L 8 0 L 0 0 L fill}
>> matrix makepattern
/Pat3 exch def
<< Tile8x8
 /PaintProc {0.5 setlinewidth pop -4 8 M 8 -4 L
	0 12 M 12 0 L stroke}
>> matrix makepattern
/Pat4 exch def
<< Tile8x8
 /PaintProc {0.5 setlinewidth pop -4 0 M 8 12 L
	0 -4 M 12 8 L stroke}
>> matrix makepattern
/Pat5 exch def
<< Tile8x8
 /PaintProc {0.5 setlinewidth pop -2 8 M 4 -4 L
	0 12 M 8 -4 L 4 12 M 10 0 L stroke}
>> matrix makepattern
/Pat6 exch def
<< Tile8x8
 /PaintProc {0.5 setlinewidth pop -2 0 M 4 12 L
	0 -4 M 8 12 L 4 -4 M 10 8 L stroke}
>> matrix makepattern
/Pat7 exch def
<< Tile8x8
 /PaintProc {0.5 setlinewidth pop 8 -2 M -4 4 L
	12 0 M -4 8 L 12 4 M 0 10 L stroke}
>> matrix makepattern
/Pat8 exch def
<< Tile8x8
 /PaintProc {0.5 setlinewidth pop 0 -2 M 12 4 L
	-4 0 M 12 8 L -4 4 M 8 10 L stroke}
>> matrix makepattern
/Pat9 exch def
/Pattern1 {PatternBgnd KeepColor Pat1 setpattern} bind def
/Pattern2 {PatternBgnd KeepColor Pat2 setpattern} bind def
/Pattern3 {PatternBgnd KeepColor Pat3 setpattern} bind def
/Pattern4 {PatternBgnd KeepColor Landscape {Pat5} {Pat4} ifelse setpattern} bind def
/Pattern5 {PatternBgnd KeepColor Landscape {Pat4} {Pat5} ifelse setpattern} bind def
/Pattern6 {PatternBgnd KeepColor Landscape {Pat9} {Pat6} ifelse setpattern} bind def
/Pattern7 {PatternBgnd KeepColor Landscape {Pat8} {Pat7} ifelse setpattern} bind def
} def
%
%
%End of PostScript Level 2 code
%
/PatternBgnd {
  TransparentPatterns {} {gsave 1 setgray fill grestore} ifelse
} def
%
% Substitute for Level 2 pattern fill codes with
% grayscale if Level 2 support is not selected.
%
/Level1PatternFill {
/Pattern1 {0.250 Density} bind def
/Pattern2 {0.500 Density} bind def
/Pattern3 {0.750 Density} bind def
/Pattern4 {0.125 Density} bind def
/Pattern5 {0.375 Density} bind def
/Pattern6 {0.625 Density} bind def
/Pattern7 {0.875 Density} bind def
} def
%
% Now test for support of Level 2 code
%
Level1 {Level1PatternFill} {Level2PatternFill} ifelse
%
/Symbol-Oblique /Symbol findfont [1 0 .167 1 0 0] makefont
dup length dict begin {1 index /FID eq {pop pop} {def} ifelse} forall
currentdict end definefont pop
end
%%EndProlog
%%Page: 1 1
gnudict begin
gsave
50 50 translate
0.100 0.100 scale
90 rotate
0 -5040 translate
0 setgray
newpath
(Helvetica) findfont 140 scalefont setfont
/Helvetica findfont 140 scalefont setfont
1.000 UL
LTb
630 327 M
63 0 V
6297 0 R
-63 0 V
546 327 M
( 0) Rshow
1.000 UL
LTb
630 1245 M
63 0 V
6297 0 R
-63 0 V
-6381 0 R
( 10) Rshow
1.000 UL
LTb
630 2163 M
63 0 V
6297 0 R
-63 0 V
-6381 0 R
( 20) Rshow
1.000 UL
LTb
630 3080 M
63 0 V
6297 0 R
-63 0 V
-6381 0 R
( 30) Rshow
1.000 UL
LTb
630 3998 M
63 0 V
6297 0 R
-63 0 V
-6381 0 R
( 40) Rshow
1.000 UL
LTb
1136 280 M
0 63 V
0 4529 R
0 -63 V
0 -4669 R
( 2200) Cshow
1.000 UL
LTb
1799 280 M
0 63 V
0 4529 R
0 -63 V
0 -4669 R
( 2400) Cshow
1.000 UL
LTb
2462 280 M
0 63 V
0 4529 R
0 -63 V
0 -4669 R
( 2600) Cshow
1.000 UL
LTb
3125 280 M
0 63 V
0 4529 R
0 -63 V
0 -4669 R
( 2800) Cshow
1.000 UL
LTb
3789 280 M
0 63 V
0 4529 R
0 -63 V
0 -4669 R
( 3000) Cshow
1.000 UL
LTb
4452 280 M
0 63 V
0 4529 R
0 -63 V
0 -4669 R
( 3200) Cshow
1.000 UL
LTb
5115 280 M
0 63 V
0 4529 R
0 -63 V
0 -4669 R
( 3400) Cshow
1.000 UL
LTb
5778 280 M
0 63 V
0 4529 R
0 -63 V
0 -4669 R
( 3600) Cshow
1.000 UL
LTb
6441 280 M
0 63 V
0 4529 R
0 -63 V
0 -4669 R
( 3800) Cshow
1.000 UL
LTb
1.000 UL
LTb
630 4872 N
630 280 L
6360 0 V
0 4592 V
-6360 0 V
Z stroke
1.000 UP
1.000 UL
LTb
1.000 UL
LT0
/Helvetica findfont 140 scalefont setfont
LTb
6339 4739 M
('./data/bvoltage.dat' u 1) Rshow
LT0
6423 4739 M
399 0 V
630 327 M
2 0 V
3 0 V
4 0 V
3 0 V
3 0 V
4 0 V
3 0 V
3 0 V
4 0 V
3 0 V
3 0 V
4 0 V
3 0 V
3 0 V
4 0 V
3 0 V
3 0 V
3 0 V
4 0 V
3 0 V
3 0 V
4 0 V
3 0 V
3 0 V
4 0 V
3 0 V
3 0 V
4 0 V
3 0 V
3 0 V
4 0 V
3 0 V
3 0 V
4 0 V
3 0 V
3 0 V
3 0 V
4 0 V
3 0 V
3 0 V
4 0 V
3 0 V
3 0 V
4 0 V
3 0 V
3 0 V
4 0 V
3 0 V
3 0 V
4 0 V
3 0 V
3 0 V
4 0 V
3 0 V
3 0 V
3 0 V
4 0 V
3 0 V
3 0 V
4 0 V
3 490 V
3 468 V
4 -44 V
3 -41 V
3 -40 V
4 -38 V
3 -36 V
3 -35 V
4 -32 V
3 -32 V
3 495 V
3 3390 V
1 0 R
3 -1792 V
3 0 V
3 0 V
4 0 V
3 0 V
3 0 V
4 0 V
3 0 V
3 0 V
4 0 V
3 0 V
3 0 V
4 0 V
3 0 V
3 0 V
4 0 V
3 0 V
3 0 V
4 0 V
3 0 V
3 0 V
3 0 V
4 0 V
3 0 V
3 0 V
4 0 V
3 0 V
3 0 V
4 0 V
stroke 964 3080 M
3 0 V
3 0 V
4 0 V
3 0 V
3 0 V
4 0 V
3 0 V
3 0 V
4 0 V
3 0 V
3 -125 V
3 -119 V
4 -114 V
3 -109 V
3 -104 V
4 -99 V
3 -95 V
3 -90 V
4 -86 V
3 -83 V
3 -78 V
4 -75 V
3 -72 V
3 456 V
4 401 V
3 -107 V
3 -103 V
4 -98 V
3 -93 V
3 -89 V
3 -1871 V
4 0 V
3 0 V
3 0 V
4 0 V
3 0 V
3 0 V
4 0 V
3 0 V
3 0 V
4 0 V
3 0 V
3 0 V
4 0 V
3 0 V
3 0 V
4 0 V
3 0 V
3 0 V
3 0 V
4 0 V
3 0 V
3 0 V
4 0 V
3 0 V
3 0 V
4 0 V
3 0 V
3 490 V
4 502 V
3 -45 V
3 -43 V
4 -41 V
3 -39 V
3 -37 V
4 -36 V
3 -34 V
3 -33 V
3 -31 V
4 -30 V
3 -28 V
3 -27 V
4 -26 V
3 -24 V
3 -24 V
4 -22 V
3 -22 V
3 -20 V
4 -20 V
3 -18 V
3 -18 V
4 -17 V
3 -16 V
3 -16 V
4 -15 V
3 -14 V
3 -13 V
3 -13 V
4 -12 V
3 -12 V
3 -11 V
4 -11 V
3 480 V
3 -32 V
4 -31 V
3 3904 V
3 -1792 V
4 0 V
3 0 V
3 0 V
4 0 V
3 0 V
3 0 V
3 0 V
stroke 1308 3080 M
4 0 V
3 0 V
3 0 V
4 0 V
3 0 V
3 0 V
4 0 V
3 0 V
3 0 V
4 0 V
3 0 V
3 0 V
4 0 V
3 0 V
3 0 V
4 0 V
3 0 V
3 0 V
3 0 V
4 0 V
3 0 V
3 0 V
4 0 V
3 0 V
3 0 V
4 0 V
3 0 V
3 0 V
4 0 V
3 0 V
3 0 V
4 -125 V
3 -119 V
3 -114 V
4 -109 V
3 -104 V
3 -99 V
3 -95 V
4 -90 V
3 -86 V
3 -83 V
4 -78 V
3 -75 V
3 -72 V
4 -68 V
3 -66 V
3 -62 V
4 -59 V
3 -57 V
3 -54 V
4 -52 V
3 -1086 V
3 0 V
4 0 V
3 0 V
3 0 V
3 0 V
4 0 V
3 525 V
3 -24 V
4 -23 V
3 468 V
3 -43 V
4 -41 V
3 -39 V
3 -37 V
4 -36 V
3 -34 V
3 -33 V
4 -31 V
3 -29 V
3 -29 V
4 -27 V
3 -25 V
3 -25 V
3 -23 V
4 -23 V
3 -21 V
3 -21 V
4 -19 V
3 -19 V
3 -18 V
4 -17 V
3 -16 V
3 -15 V
4 -15 V
3 -14 V
3 -13 V
4 -13 V
3 -13 V
3 -11 V
4 -11 V
3 -11 V
3 480 V
3 -32 V
4 -31 V
3 -29 V
3 497 V
4 -51 V
3 -48 V
3 -46 V
4 -43 V
3 -42 V
3 -40 V
stroke 1653 1166 M
4 -38 V
3 -37 V
3 -34 V
4 -34 V
3 -31 V
3 -30 V
4 -29 V
3 -28 V
3 -26 V
3 -25 V
4 -24 V
3 -23 V
3 -22 V
4 -21 V
3 -19 V
3 -19 V
4 -18 V
3 -18 V
3 -16 V
4 -16 V
3 -15 V
3 -14 V
4 -14 V
3 -13 V
3 477 V
4 -34 V
3 -33 V
3 -31 V
3 3891 V
1 0 R
3 -1792 V
3 0 V
3 0 V
4 0 V
3 0 V
3 0 V
4 0 V
3 0 V
3 0 V
4 0 V
3 0 V
3 0 V
4 0 V
3 0 V
3 0 V
4 0 V
3 0 V
3 0 V
3 0 V
4 0 V
3 0 V
3 0 V
4 0 V
3 0 V
3 0 V
4 0 V
3 0 V
3 0 V
4 0 V
3 0 V
3 0 V
4 0 V
3 0 V
3 0 V
4 0 V
3 0 V
3 0 V
3 0 V
4 0 V
3 -125 V
3 -119 V
4 -114 V
3 -109 V
3 -104 V
4 -99 V
3 -95 V
3 -90 V
4 -86 V
3 -83 V
3 -78 V
4 -75 V
3 -72 V
3 -68 V
4 459 V
3 -86 V
3 -82 V
3 -79 V
4 -75 V
3 -71 V
3 -1502 V
4 490 V
3 -22 V
3 -21 V
4 -21 V
3 -19 V
3 -19 V
4 -17 V
3 -17 V
3 -16 V
4 -15 V
3 -15 V
3 -14 V
4 -13 V
3 -13 V
stroke 1995 595 M
3 -12 V
3 -12 V
4 -11 V
3 -11 V
3 -10 V
4 -9 V
3 -10 V
3 -8 V
4 -9 V
3 -8 V
3 -7 V
4 -8 V
3 -7 V
3 -6 V
4 -7 V
3 -6 V
3 -5 V
4 -6 V
3 485 V
3 -28 V
3 -26 V
4 -25 V
3 -23 V
3 -23 V
4 503 V
3 -44 V
3 -43 V
4 -40 V
3 -39 V
3 -37 V
4 -35 V
3 -34 V
3 -32 V
4 -31 V
3 -29 V
3 -28 V
4 -27 V
3 -25 V
3 -24 V
3 -24 V
4 -22 V
3 -21 V
3 470 V
4 -42 V
3 -39 V
3 -38 V
4 -36 V
3 -35 V
3 -33 V
4 -31 V
3 494 V
3 -52 V
4 -50 V
3 -48 V
3 -45 V
4 -44 V
3 -42 V
3 -39 V
3 -38 V
4 -36 V
3 -35 V
3 -33 V
4 -31 V
3 -30 V
3 -29 V
4 -27 V
3 -26 V
3 -25 V
4 -24 V
3 -23 V
3 -21 V
4 -21 V
3 -20 V
3 -19 V
4 -18 V
3 -17 V
3 -16 V
3 -16 V
4 -15 V
3 -14 V
3 -14 V
4 -13 V
3 478 V
3 -35 V
4 -32 V
3 -31 V
3 -30 V
4 496 V
3 3426 V
3 -1792 V
4 0 V
3 0 V
3 0 V
4 0 V
3 0 V
3 0 V
3 0 V
4 0 V
3 0 V
3 0 V
4 0 V
3 0 V
3 0 V
4 0 V
stroke 2340 3080 M
3 0 V
3 0 V
4 0 V
3 0 V
3 0 V
4 0 V
3 0 V
3 0 V
3 0 V
4 0 V
3 0 V
3 0 V
4 0 V
3 0 V
3 0 V
4 0 V
3 0 V
3 0 V
4 0 V
3 0 V
3 0 V
4 0 V
3 0 V
3 0 V
4 -125 V
3 -119 V
3 -114 V
3 -109 V
4 -104 V
3 -99 V
3 -95 V
4 -90 V
3 -86 V
3 -83 V
4 -78 V
3 -75 V
3 -72 V
4 -68 V
3 -66 V
3 -62 V
4 -59 V
3 -57 V
3 -54 V
4 -52 V
3 -1086 V
3 0 V
3 0 V
4 0 V
3 525 V
3 -24 V
4 -23 V
3 468 V
3 -43 V
4 -41 V
3 -39 V
3 -37 V
4 -36 V
3 -34 V
3 -33 V
4 -31 V
3 -29 V
3 -29 V
4 -27 V
3 -25 V
3 -25 V
3 -23 V
4 -23 V
3 -21 V
3 -21 V
4 -19 V
3 -19 V
3 507 V
4 -41 V
3 -39 V
3 -37 V
4 -35 V
3 -34 V
3 -33 V
4 459 V
3 -51 V
3 -50 V
4 -47 V
3 -45 V
3 -43 V
3 -41 V
4 -39 V
3 -37 V
3 -36 V
4 -34 V
3 -33 V
3 -31 V
4 -29 V
3 -28 V
3 -27 V
4 -26 V
3 -25 V
3 -23 V
4 -23 V
3 -21 V
3 -20 V
4 -20 V
3 -18 V
3 -18 V
3 -17 V
stroke 2684 683 M
4 -16 V
3 -16 V
3 -14 V
4 -14 V
3 -14 V
3 -13 V
4 -12 V
3 -12 V
3 -11 V
4 514 V
3 -34 V
3 -32 V
4 -31 V
3 -30 V
3 -28 V
4 -27 V
3 -26 V
3 466 V
3 -46 V
4 -44 V
3 -41 V
3 -40 V
4 -38 V
3 -36 V
3 -35 V
4 -33 V
3 -31 V
3 -30 V
4 -29 V
3 -27 V
3 -27 V
4 -25 V
3 -23 V
3 -23 V
4 -22 V
3 -21 V
3 -19 V
3 471 V
4 -41 V
3 -38 V
3 -37 V
4 -35 V
3 -33 V
3 -32 V
4 494 V
3 -53 V
3 -51 V
4 -48 V
3 -46 V
3 -44 V
4 -42 V
3 -40 V
3 -38 V
4 -37 V
3 -34 V
3 -34 V
3 -31 V
4 -31 V
3 -29 V
3 -27 V
4 -26 V
3 -26 V
3 -24 V
4 -23 V
3 -21 V
3 -21 V
4 -20 V
3 -19 V
3 -18 V
4 -18 V
3 -16 V
3 -16 V
4 -15 V
3 -15 V
3 -13 V
3 476 V
4 -34 V
3 -34 V
3 -31 V
4 -30 V
3 -29 V
3 -28 V
4 -26 V
3 499 V
3 -48 V
4 -45 V
3 -44 V
3 -41 V
4 -40 V
3 -38 V
3 -36 V
4 -35 V
3 -33 V
3 -31 V
3 -30 V
4 -29 V
3 -27 V
3 -26 V
4 -25 V
3 -24 V
3 -23 V
4 503 V
3 -44 V
3 -43 V
stroke 3029 1220 M
4 -40 V
3 -39 V
3 -37 V
4 -35 V
3 -34 V
3 -32 V
4 -31 V
3 -29 V
3 -28 V
3 463 V
4 -48 V
3 -45 V
3 -44 V
4 -42 V
3 -39 V
3 -38 V
4 -36 V
3 -35 V
3 -33 V
4 -31 V
3 -30 V
3 -29 V
4 -27 V
3 -26 V
3 -25 V
4 -24 V
3 -22 V
3 -22 V
3 -21 V
4 -19 V
3 -19 V
3 -18 V
4 -17 V
3 -17 V
3 -15 V
4 -15 V
3 475 V
3 489 V
4 -58 V
3 -55 V
3 -53 V
4 -51 V
3 -48 V
3 -46 V
4 -44 V
3 -42 V
3 -40 V
3 -38 V
4 -37 V
3 -35 V
3 -33 V
4 -32 V
3 -30 V
3 -29 V
4 -27 V
3 -27 V
3 -25 V
4 -24 V
3 -23 V
3 -22 V
4 -20 V
3 -20 V
3 -19 V
4 -19 V
3 -17 V
3 -16 V
3 -16 V
4 -15 V
3 510 V
3 -38 V
4 -35 V
3 -35 V
3 -32 V
4 -32 V
3 -29 V
3 -29 V
4 -27 V
3 -26 V
3 -25 V
4 467 V
3 -45 V
3 -43 V
4 -41 V
3 -39 V
3 -37 V
3 -35 V
4 -34 V
3 -33 V
3 -30 V
4 -30 V
3 -28 V
3 -27 V
4 -25 V
3 -25 V
3 -23 V
4 -23 V
3 -21 V
3 -20 V
4 -20 V
3 996 V
3 -63 V
4 -61 V
3 -58 V
3 -56 V
stroke 3374 1492 M
3 -53 V
4 -50 V
3 -49 V
3 -46 V
4 -44 V
3 -42 V
3 -40 V
4 -38 V
3 -36 V
3 -35 V
4 -33 V
3 -32 V
3 -30 V
4 -29 V
3 -28 V
3 -26 V
3 -26 V
4 -24 V
3 -22 V
3 -22 V
4 -21 V
3 -20 V
3 -19 V
4 -18 V
3 -18 V
3 -16 V
4 -16 V
3 -15 V
3 -14 V
4 -14 V
3 -13 V
3 -13 V
4 -12 V
3 479 V
3 -34 V
3 -31 V
4 -30 V
3 -29 V
3 497 V
4 -50 V
3 -48 V
3 -46 V
4 -43 V
3 -42 V
3 -40 V
4 -38 V
3 -36 V
3 -34 V
4 -33 V
3 -32 V
3 -30 V
4 -28 V
3 -28 V
3 -26 V
3 -25 V
4 -24 V
3 -22 V
3 -22 V
4 -21 V
3 -20 V
3 -18 V
4 -19 V
3 -17 V
3 -16 V
4 509 V
3 -39 V
3 -37 V
4 -35 V
3 -34 V
3 -32 V
4 459 V
3 -52 V
3 -49 V
3 -47 V
4 -45 V
3 -43 V
3 -41 V
4 -39 V
3 -37 V
3 -36 V
4 -34 V
3 -32 V
3 -31 V
4 -30 V
3 -28 V
3 -27 V
4 -25 V
3 -25 V
3 -23 V
4 -23 V
3 -21 V
3 -20 V
3 -20 V
4 -18 V
3 -18 V
3 -17 V
4 -16 V
3 474 V
3 -37 V
4 -35 V
3 -33 V
3 -33 V
4 -30 V
3 -30 V
stroke 3719 942 M
3 -28 V
4 -26 V
3 499 V
3 -48 V
4 -46 V
3 -44 V
3 -42 V
3 -40 V
4 -38 V
3 -37 V
3 -34 V
4 -34 V
3 -31 V
3 -31 V
4 -28 V
3 -28 V
3 -26 V
4 -25 V
3 -24 V
3 -23 V
4 -22 V
3 -21 V
3 -20 V
4 471 V
3 -40 V
3 -39 V
3 -37 V
4 -35 V
3 -33 V
3 -32 V
4 -31 V
3 -29 V
3 -28 V
4 498 V
3 -49 V
3 -47 V
4 -45 V
3 -43 V
3 -41 V
4 -39 V
3 -37 V
3 -35 V
4 -34 V
3 -33 V
3 -31 V
3 -29 V
4 -28 V
3 -27 V
3 -26 V
4 -24 V
3 -24 V
3 -22 V
4 -21 V
3 -21 V
3 -19 V
4 -19 V
3 -17 V
3 -17 V
4 474 V
3 486 V
3 -59 V
4 -57 V
3 -55 V
3 -52 V
3 -49 V
4 -48 V
3 -45 V
3 -43 V
4 -41 V
3 -40 V
3 -37 V
4 -36 V
3 -34 V
3 -33 V
4 -31 V
3 -30 V
3 -28 V
4 -27 V
3 -26 V
3 -25 V
4 -24 V
3 -22 V
3 -22 V
3 -20 V
4 -20 V
3 -18 V
3 -18 V
4 -17 V
3 -16 V
3 -16 V
4 -15 V
3 -14 V
3 -13 V
4 -13 V
3 -13 V
3 -11 V
4 -11 V
3 513 V
3 -34 V
4 -32 V
3 -31 V
3 -30 V
3 -28 V
4 -27 V
stroke 4064 894 M
3 464 V
3 -47 V
4 -45 V
3 -42 V
3 -41 V
4 -39 V
3 -37 V
3 -35 V
4 -34 V
3 -33 V
3 -30 V
4 -30 V
3 -28 V
3 -27 V
4 -25 V
3 -25 V
3 -23 V
3 -22 V
4 -22 V
3 -20 V
3 -19 V
4 471 V
3 -40 V
3 -38 V
4 -36 V
3 -35 V
3 -33 V
4 -32 V
3 3881 V
3 -1792 V
4 0 V
3 0 V
3 0 V
4 0 V
3 0 V
3 0 V
3 0 V
4 0 V
3 0 V
3 0 V
4 0 V
3 0 V
3 0 V
4 0 V
3 0 V
3 0 V
4 0 V
3 0 V
3 0 V
4 0 V
3 0 V
3 0 V
4 0 V
3 0 V
3 0 V
3 0 V
4 0 V
3 0 V
3 0 V
4 0 V
3 0 V
3 0 V
4 0 V
3 0 V
3 0 V
4 0 V
3 0 V
3 0 V
4 -125 V
3 -119 V
3 -114 V
4 -109 V
3 -104 V
3 -99 V
3 -95 V
4 -90 V
3 -86 V
3 -83 V
4 -78 V
3 -75 V
3 -72 V
4 -68 V
3 -66 V
3 -62 V
4 -59 V
3 -57 V
3 -54 V
4 -52 V
3 -1086 V
3 0 V
4 0 V
3 0 V
3 0 V
3 0 V
4 0 V
3 0 V
3 0 V
4 0 V
3 0 V
3 0 V
4 525 V
3 -24 V
3 -23 V
4 -21 V
stroke 4409 784 M
3 -21 V
3 -20 V
4 -19 V
3 -18 V
3 -17 V
4 -17 V
3 -15 V
3 -15 V
3 -15 V
4 -13 V
3 -13 V
3 -13 V
4 -11 V
3 -12 V
3 -11 V
4 -10 V
3 -10 V
3 -9 V
4 -9 V
3 -9 V
3 -8 V
4 482 V
3 -30 V
3 -28 V
3 -27 V
4 -26 V
3 -25 V
3 501 V
4 -46 V
3 -44 V
3 -42 V
4 -41 V
3 -38 V
3 -37 V
4 -35 V
3 -33 V
3 -32 V
4 -31 V
3 -29 V
3 -28 V
4 -26 V
3 -25 V
3 -24 V
3 -24 V
4 -22 V
3 -21 V
3 -20 V
4 -19 V
3 -18 V
3 -17 V
4 -17 V
3 -16 V
3 -15 V
4 -15 V
3 -13 V
3 -14 V
4 -12 V
3 512 V
3 -35 V
4 -34 V
3 -32 V
3 -31 V
3 461 V
4 -50 V
3 -48 V
3 -46 V
4 -44 V
3 -42 V
3 -39 V
4 -38 V
3 -37 V
3 -34 V
4 -33 V
3 -32 V
3 -30 V
4 -29 V
3 -27 V
3 -26 V
4 -25 V
3 -24 V
3 -23 V
3 -22 V
4 -21 V
3 -19 V
3 -19 V
4 -18 V
3 -18 V
3 -16 V
4 -16 V
3 510 V
3 -38 V
4 453 V
3 3290 V
3 -1792 V
4 0 V
3 0 V
3 0 V
4 0 V
3 0 V
3 0 V
3 0 V
4 0 V
3 0 V
3 0 V
stroke 4753 3080 M
4 0 V
3 0 V
3 0 V
4 0 V
3 0 V
3 0 V
4 0 V
3 0 V
3 0 V
4 0 V
3 0 V
3 0 V
4 0 V
3 0 V
3 0 V
3 0 V
4 0 V
3 0 V
3 0 V
4 0 V
3 0 V
3 0 V
4 0 V
3 0 V
3 0 V
4 0 V
3 0 V
3 0 V
4 -125 V
3 -119 V
3 -114 V
4 -109 V
3 -104 V
3 -99 V
3 -95 V
4 -90 V
3 -86 V
3 -83 V
4 -78 V
3 -75 V
3 -72 V
4 -68 V
3 -66 V
3 -62 V
4 -59 V
3 468 V
3 -78 V
4 -75 V
3 -1564 V
3 0 V
4 0 V
3 0 V
3 0 V
3 0 V
4 490 V
3 -22 V
3 -21 V
4 -21 V
3 -19 V
3 -19 V
4 -17 V
3 -17 V
3 -16 V
4 -15 V
3 -15 V
3 -14 V
4 -13 V
3 -13 V
3 -12 V
4 -12 V
3 -11 V
3 -11 V
3 -10 V
4 -9 V
3 -10 V
3 -8 V
4 -9 V
3 -8 V
3 -7 V
4 -8 V
3 -7 V
3 484 V
4 -29 V
3 -27 V
3 498 V
4 -49 V
3 -46 V
3 -44 V
4 -43 V
3 -40 V
3 -39 V
3 -37 V
4 -35 V
3 -33 V
3 -33 V
4 -30 V
3 -29 V
3 -28 V
4 -27 V
3 -25 V
3 -24 V
4 -24 V
3 -22 V
3 -21 V
stroke 5098 770 M
4 -20 V
3 -19 V
3 -19 V
4 -17 V
3 -17 V
3 -16 V
3 -15 V
4 -14 V
3 -14 V
3 -14 V
4 -12 V
3 512 V
3 -35 V
4 -34 V
3 -32 V
3 -31 V
4 461 V
3 -51 V
3 -48 V
4 -45 V
3 -44 V
3 -42 V
4 -40 V
3 -38 V
3 -36 V
3 -35 V
4 -33 V
3 -31 V
3 -31 V
4 -28 V
3 -28 V
3 -26 V
4 -25 V
3 -24 V
3 -23 V
4 -22 V
3 -20 V
3 -20 V
4 -19 V
3 -18 V
3 507 V
4 -40 V
3 -39 V
3 453 V
3 -57 V
4 -55 V
3 -52 V
3 -50 V
4 -47 V
3 -46 V
3 -43 V
4 -41 V
3 -40 V
3 -38 V
4 -36 V
3 -34 V
3 -33 V
4 -31 V
3 -30 V
3 -29 V
4 -27 V
3 -26 V
3 -25 V
3 -23 V
4 -23 V
3 -22 V
3 -20 V
4 -20 V
3 -19 V
3 -17 V
4 -18 V
3 -16 V
3 -15 V
4 -15 V
3 -15 V
3 -13 V
4 -13 V
3 -12 V
3 -12 V
4 -11 V
3 -11 V
3 -10 V
3 -10 V
4 -10 V
3 516 V
3 -32 V
4 -31 V
3 -30 V
3 462 V
4 -49 V
3 -47 V
3 -45 V
4 -42 V
3 -41 V
3 -39 V
4 -37 V
3 -36 V
3 -34 V
4 -32 V
3 -31 V
3 -29 V
3 -28 V
4 -27 V
3 -26 V
stroke 5443 865 M
3 -24 V
4 -24 V
3 -22 V
3 -21 V
4 -20 V
3 470 V
3 484 V
4 -63 V
3 3227 V
3 -1792 V
4 0 V
3 0 V
3 0 V
4 0 V
3 0 V
3 0 V
3 0 V
4 0 V
3 0 V
3 0 V
4 0 V
3 0 V
3 0 V
4 0 V
3 0 V
3 0 V
4 0 V
3 0 V
3 0 V
4 0 V
3 0 V
3 0 V
3 0 V
4 0 V
3 0 V
3 0 V
4 0 V
3 0 V
3 0 V
4 0 V
3 0 V
3 0 V
4 0 V
3 0 V
3 0 V
4 0 V
3 0 V
3 0 V
4 -125 V
3 -119 V
3 -114 V
3 -109 V
4 -104 V
3 -99 V
3 -95 V
4 -90 V
3 -86 V
3 -83 V
4 -78 V
3 -75 V
3 -72 V
4 -68 V
3 -66 V
3 -62 V
4 -59 V
3 -57 V
3 -54 V
4 -52 V
3 -1086 V
3 0 V
3 0 V
4 0 V
3 0 V
3 0 V
4 0 V
3 1015 V
3 -46 V
4 -44 V
3 -42 V
3 -41 V
4 -38 V
3 -36 V
3 -35 V
4 -34 V
3 -31 V
3 -31 V
4 -29 V
3 -27 V
3 -27 V
3 -25 V
4 -24 V
3 -23 V
3 -22 V
4 -21 V
3 -20 V
3 -19 V
4 -18 V
3 -17 V
3 -17 V
4 -16 V
3 -15 V
3 -14 V
4 -14 V
3 -13 V
stroke 5788 603 M
3 -12 V
4 -12 V
3 478 V
3 -33 V
3 -32 V
4 -30 V
3 -29 V
3 -27 V
4 -27 V
3 500 V
3 -48 V
4 -46 V
3 -43 V
3 -42 V
4 -39 V
3 -38 V
3 -36 V
4 -35 V
3 -33 V
3 -31 V
4 -30 V
3 -29 V
3 -27 V
3 -27 V
4 -24 V
3 -24 V
3 -23 V
4 -22 V
3 -20 V
3 -20 V
4 -19 V
3 -18 V
3 -17 V
4 473 V
3 487 V
3 3224 V
4 -1792 V
3 0 V
3 0 V
4 0 V
3 0 V
3 0 V
3 0 V
4 0 V
3 0 V
3 0 V
4 0 V
3 0 V
3 0 V
4 0 V
3 0 V
3 0 V
4 0 V
3 0 V
3 0 V
4 0 V
3 0 V
3 0 V
4 0 V
3 0 V
3 0 V
3 0 V
4 0 V
3 0 V
3 0 V
4 0 V
3 0 V
3 0 V
4 0 V
3 0 V
3 0 V
4 0 V
3 0 V
3 0 V
4 0 V
3 -125 V
3 -119 V
4 -114 V
3 381 V
3 -126 V
3 -121 V
4 -115 V
3 -110 V
3 -104 V
4 -100 V
3 -96 V
3 -91 V
4 -87 V
3 -83 V
3 -79 V
4 -76 V
3 -72 V
3 -69 V
4 -65 V
3 -63 V
3 -1319 V
4 0 V
3 0 V
3 0 V
3 0 V
4 0 V
3 0 V
3 1015 V
4 -46 V
stroke 6133 1296 M
3 -44 V
3 -42 V
4 -41 V
3 -38 V
3 -36 V
4 -35 V
3 -34 V
3 -31 V
4 -31 V
3 -29 V
3 -27 V
4 -27 V
3 -25 V
3 -24 V
3 -23 V
4 -22 V
3 -21 V
3 -20 V
4 -19 V
3 -18 V
3 -17 V
4 -17 V
3 -16 V
3 -15 V
4 -14 V
3 -14 V
3 -13 V
4 -12 V
3 -12 V
3 -12 V
4 -11 V
3 -10 V
3 -10 V
3 480 V
4 -31 V
3 -30 V
3 -29 V
4 -27 V
3 -26 V
3 -25 V
4 -23 V
3 502 V
3 -46 V
4 -43 V
3 -41 V
3 -40 V
4 -38 V
3 -36 V
3 -34 V
4 -33 V
3 -31 V
3 -30 V
3 -29 V
4 -27 V
3 -26 V
3 -25 V
4 -23 V
3 -23 V
3 -21 V
4 -21 V
3 -20 V
3 -19 V
4 -17 V
3 -18 V
3 -16 V
4 474 V
3 -37 V
3 489 V
4 -57 V
3 -55 V
3 -53 V
3 -50 V
4 -48 V
3 -46 V
3 -43 V
4 -42 V
3 -40 V
3 -38 V
4 -36 V
3 -35 V
3 -33 V
4 -31 V
3 -30 V
3 -29 V
4 -27 V
3 -26 V
3 -25 V
4 -24 V
3 -23 V
3 -22 V
3 -20 V
4 -20 V
3 -19 V
3 -18 V
4 473 V
3 -39 V
3 -37 V
4 -35 V
3 491 V
3 -56 V
4 -54 V
3 -51 V
3 -48 V
4 -47 V
stroke 6478 1303 M
3 -44 V
3 -43 V
4 -40 V
3 -39 V
3 -36 V
3 -36 V
4 -33 V
3 -32 V
3 -31 V
4 -29 V
3 -28 V
3 -26 V
4 -26 V
3 -24 V
3 -23 V
4 -22 V
3 -21 V
3 -20 V
4 -20 V
3 -18 V
3 -17 V
3 -17 V
4 -16 V
3 -15 V
3 -15 V
4 -14 V
3 -13 V
3 512 V
4 -36 V
3 -34 V
3 -33 V
4 -31 V
3 -30 V
3 -28 V
4 -27 V
3 463 V
3 -47 V
4 -44 V
3 -43 V
3 -41 V
3 -39 V
4 -37 V
3 -36 V
3 -34 V
4 -32 V
3 -31 V
3 -30 V
4 -28 V
3 -27 V
3 -25 V
4 -25 V
3 -23 V
3 -23 V
4 -21 V
3 -20 V
3 -20 V
4 -18 V
3 -18 V
3 -17 V
3 -16 V
4 -15 V
3 475 V
3 -37 V
4 -34 V
3 -33 V
3 -32 V
4 -30 V
3 -29 V
3 -27 V
4 498 V
3 -49 V
3 -46 V
4 -45 V
3 -42 V
3 -41 V
4 -39 V
3 -37 V
3 -35 V
3 -34 V
4 -32 V
3 -30 V
3 -30 V
4 -28 V
3 -26 V
3 -26 V
4 -24 V
3 -23 V
3 -22 V
4 -22 V
3 -20 V
3 -19 V
4 -18 V
3 -18 V
3 -17 V
4 -16 V
3 -15 V
3 -15 V
3 -14 V
4 -13 V
3 -12 V
3 -13 V
4 -11 V
3 -11 V
3 -11 V
stroke 6822 548 M
4 -10 V
3 -9 V
3 -9 V
4 -9 V
3 -9 V
3 -8 V
4 -7 V
3 -7 V
3 -7 V
4 -7 V
3 -6 V
3 -6 V
3 -6 V
4 -5 V
3 -6 V
3 -5 V
4 -4 V
3 -5 V
3 -4 V
4 -5 V
3 -4 V
3 -3 V
4 -4 V
3 -3 V
3 -4 V
4 -3 V
3 -3 V
3 -3 V
4 -2 V
3 -3 V
3 -2 V
3 -3 V
4 -2 V
3 -2 V
3 -2 V
4 -2 V
3 -2 V
3 -2 V
4 -2 V
3 -1 V
3 -2 V
4 -1 V
3 -2 V
3 -1 V
4 -1 V
3 -2 V
3 -1 V
4 -1 V
3 -1 V
3 -1 V
2 -1 V
stroke
LTb
630 4872 N
630 280 L
6360 0 V
0 4592 V
-6360 0 V
Z stroke
1.000 UP
1.000 UL
LTb
stroke
grestore
end
showpage
%%Trailer
%%DocumentFonts: Helvetica
%%Pages: 1
