%!PS-Adobe-3.0 EPSF-3.0
%%Title: /srv/userdata/HOMES/gkastel/src/lamodel/sims_nocreb.eps
%%Creator: matplotlib version 0.99.1.1, http://matplotlib.sourceforge.net/
%%CreationDate: Tue Oct  8 13:09:03 2013
%%Orientation: portrait
%%BoundingBox: 18 180 594 612
%%EndComments
%%BeginProlog
/mpldict 8 dict def
mpldict begin
/m { moveto } bind def
/l { lineto } bind def
/r { rlineto } bind def
/c { curveto } bind def
/cl { closepath } bind def
/box {
m
1 index 0 r
0 exch r
neg 0 r
cl
} bind def
/clipbox {
box
clip
newpath
} bind def
%!PS-Adobe-3.0 Resource-Font
%%Title: DejaVu Sans
%%Copyright: Copyright (c) 2003 by Bitstream, Inc. All Rights Reserved. Copyright (c) 2006 by Tavmjong Bah. All Rights Reserved. DejaVu changes are in public domain 
%%Creator: Converted from TrueType by PPR
25 dict begin
/_d{bind def}bind def
/_m{moveto}_d
/_l{lineto}_d
/_cl{closepath eofill}_d
/_c{curveto}_d
/_sc{7 -1 roll{setcachedevice}{pop pop pop pop pop pop}ifelse}_d
/_e{exec}_d
/FontName /DejaVuSans def
/PaintType 0 def
/FontMatrix[.001 0 0 .001 0 0]def
/FontBBox[-1020 -349 1681 1167]def
/FontType 3 def
/Encoding StandardEncoding def
/FontInfo 10 dict dup begin
/FamilyName (DejaVu Sans) def
/FullName (DejaVu Sans) def
/Notice (Copyright (c) 2003 by Bitstream, Inc. All Rights Reserved. Copyright (c) 2006 by Tavmjong Bah. All Rights Reserved. DejaVu changes are in public domain ) def
/Weight (Book) def
/Version (Version 2.30) def
/ItalicAngle 0.0 def
/isFixedPitch false def
/UnderlinePosition -130 def
/UnderlineThickness 90 def
end readonly def
/CharStrings 16 dict dup begin
/space{318 0 0 0 0 0 _sc
}_d
/percent{{950 0 55 -13 895 742 _sc
727 321 _m
699 321 676 309 660 285 _c
644 261 636 227 636 184 _c
636 142 644 108 660 84 _c
676 60 699 48 727 48 _c
755 48 777 60 793 84 _c
809 108 817 142 817 184 _c
817 226 809 260 793 284 _c
777 308 755 321 727 321 _c
727 383 _m
778 383 819 365 849 329 _c
879 293 895 244 895 184 _c
895 123 879 75 849 40 _c
819 4 778 -13 727 -13 _c
675 -13 633 4 603 40 _c
573 75 558 123 558 184 _c
558 245 573 293 603 329 _c
633 365 675 383 727 383 _c
664 742 _m
742 742 _l
286 -13 _l
208 -13 _l
664 742 _l
223 742 _m
274 742 315 724 346 688 _c
376 652 392 604 392 544 _c
}_e{392 482 376 434 346 398 _c
316 362 275 345 223 345 _c
171 345 130 362 100 398 _c
70 434 55 482 55 544 _c
55 604 70 652 100 688 _c
130 724 171 742 223 742 _c
223 680 _m
195 680 173 667 157 643 _c
141 619 133 586 133 544 _c
133 500 141 467 157 443 _c
173 419 195 407 223 407 _c
251 407 274 419 290 443 _c
306 467 314 500 314 544 _c
314 586 305 619 289 643 _c
273 667 251 680 223 680 _c
_cl}_e}_d
/period{318 0 107 0 210 124 _sc
107 124 _m
210 124 _l
210 0 _l
107 0 _l
107 124 _l
_cl}_d
/zero{636 0 66 -13 570 742 _sc
318 664 _m
267 664 229 639 203 589 _c
177 539 165 464 165 364 _c
165 264 177 189 203 139 _c
229 89 267 64 318 64 _c
369 64 407 89 433 139 _c
458 189 471 264 471 364 _c
471 464 458 539 433 589 _c
407 639 369 664 318 664 _c
318 742 _m
399 742 461 709 505 645 _c
548 580 570 486 570 364 _c
570 241 548 147 505 83 _c
461 19 399 -13 318 -13 _c
236 -13 173 19 130 83 _c
87 147 66 241 66 364 _c
66 486 87 580 130 645 _c
173 709 236 742 318 742 _c
_cl}_d
/one{636 0 110 0 544 729 _sc
124 83 _m
285 83 _l
285 639 _l
110 604 _l
110 694 _l
284 729 _l
383 729 _l
383 83 _l
544 83 _l
544 0 _l
124 0 _l
124 83 _l
_cl}_d
/two{{636 0 73 0 536 742 _sc
192 83 _m
536 83 _l
536 0 _l
73 0 _l
73 83 _l
110 121 161 173 226 239 _c
290 304 331 346 348 365 _c
380 400 402 430 414 455 _c
426 479 433 504 433 528 _c
433 566 419 598 392 622 _c
365 646 330 659 286 659 _c
255 659 222 653 188 643 _c
154 632 117 616 78 594 _c
78 694 _l
118 710 155 722 189 730 _c
223 738 255 742 284 742 _c
359 742 419 723 464 685 _c
509 647 532 597 532 534 _c
532 504 526 475 515 449 _c
504 422 484 390 454 354 _c
446 344 420 317 376 272 _c
332 227 271 164 192 83 _c
_cl}_e}_d
/three{{636 0 76 -13 556 742 _sc
406 393 _m
453 383 490 362 516 330 _c
542 298 556 258 556 212 _c
556 140 531 84 482 45 _c
432 6 362 -13 271 -13 _c
240 -13 208 -10 176 -4 _c
144 1 110 10 76 22 _c
76 117 _l
103 101 133 89 166 81 _c
198 73 232 69 268 69 _c
330 69 377 81 409 105 _c
441 129 458 165 458 212 _c
458 254 443 288 413 312 _c
383 336 341 349 287 349 _c
202 349 _l
202 430 _l
291 430 _l
339 430 376 439 402 459 _c
428 478 441 506 441 543 _c
441 580 427 609 401 629 _c
374 649 336 659 287 659 _c
260 659 231 656 200 650 _c
169 644 135 635 98 623 _c
98 711 _l
135 721 170 729 203 734 _c
235 739 266 742 296 742 _c
}_e{370 742 429 725 473 691 _c
517 657 539 611 539 553 _c
539 513 527 479 504 451 _c
481 423 448 403 406 393 _c
_cl}_e}_d
/four{636 0 49 0 580 729 _sc
378 643 _m
129 254 _l
378 254 _l
378 643 _l
352 729 _m
476 729 _l
476 254 _l
580 254 _l
580 172 _l
476 172 _l
476 0 _l
378 0 _l
378 172 _l
49 172 _l
49 267 _l
352 729 _l
_cl}_d
/five{{636 0 77 -13 549 729 _sc
108 729 _m
495 729 _l
495 646 _l
198 646 _l
198 467 _l
212 472 227 476 241 478 _c
255 480 270 482 284 482 _c
365 482 429 459 477 415 _c
525 370 549 310 549 234 _c
549 155 524 94 475 51 _c
426 8 357 -13 269 -13 _c
238 -13 207 -10 175 -6 _c
143 -1 111 6 77 17 _c
77 116 _l
106 100 136 88 168 80 _c
199 72 232 69 267 69 _c
323 69 368 83 401 113 _c
433 143 450 183 450 234 _c
450 284 433 324 401 354 _c
368 384 323 399 267 399 _c
241 399 214 396 188 390 _c
162 384 135 375 108 363 _c
108 729 _l
_cl}_e}_d
/six{{636 0 70 -13 573 742 _sc
330 404 _m
286 404 251 388 225 358 _c
199 328 186 286 186 234 _c
186 181 199 139 225 109 _c
251 79 286 64 330 64 _c
374 64 409 79 435 109 _c
461 139 474 181 474 234 _c
474 286 461 328 435 358 _c
409 388 374 404 330 404 _c
526 713 _m
526 623 _l
501 635 476 644 451 650 _c
425 656 400 659 376 659 _c
310 659 260 637 226 593 _c
192 549 172 482 168 394 _c
187 422 211 444 240 459 _c
269 474 301 482 336 482 _c
409 482 467 459 509 415 _c
551 371 573 310 573 234 _c
573 159 550 99 506 54 _c
462 9 403 -13 330 -13 _c
246 -13 181 19 137 83 _c
92 147 70 241 70 364 _c
70 479 97 571 152 639 _c
206 707 280 742 372 742 _c
}_e{396 742 421 739 447 735 _c
472 730 498 723 526 713 _c
_cl}_e}_d
/eight{{636 0 68 -13 568 742 _sc
318 346 _m
271 346 234 333 207 308 _c
180 283 167 249 167 205 _c
167 161 180 126 207 101 _c
234 76 271 64 318 64 _c
364 64 401 76 428 102 _c
455 127 469 161 469 205 _c
469 249 455 283 429 308 _c
402 333 365 346 318 346 _c
219 388 _m
177 398 144 418 120 447 _c
96 476 85 511 85 553 _c
85 611 105 657 147 691 _c
188 725 245 742 318 742 _c
390 742 447 725 489 691 _c
530 657 551 611 551 553 _c
551 511 539 476 515 447 _c
491 418 459 398 417 388 _c
464 377 501 355 528 323 _c
554 291 568 251 568 205 _c
568 134 546 80 503 43 _c
459 5 398 -13 318 -13 _c
237 -13 175 5 132 43 _c
89 80 68 134 68 205 _c
68 251 81 291 108 323 _c
134 355 171 377 219 388 _c
}_e{183 544 _m
183 506 194 476 218 455 _c
242 434 275 424 318 424 _c
360 424 393 434 417 455 _c
441 476 453 506 453 544 _c
453 582 441 611 417 632 _c
393 653 360 664 318 664 _c
275 664 242 653 218 632 _c
194 611 183 582 183 544 _c
_cl}_e}_d
/h{634 0 91 0 549 760 _sc
549 330 _m
549 0 _l
459 0 _l
459 327 _l
459 379 448 417 428 443 _c
408 469 378 482 338 482 _c
289 482 251 466 223 435 _c
195 404 181 362 181 309 _c
181 0 _l
91 0 _l
91 760 _l
181 760 _l
181 462 _l
202 494 227 519 257 535 _c
286 551 320 560 358 560 _c
420 560 468 540 500 501 _c
532 462 549 405 549 330 _c
_cl}_d
/o{612 0 55 -13 557 560 _sc
306 484 _m
258 484 220 465 192 427 _c
164 389 150 338 150 273 _c
150 207 163 156 191 118 _c
219 80 257 62 306 62 _c
354 62 392 80 420 118 _c
448 156 462 207 462 273 _c
462 337 448 389 420 427 _c
392 465 354 484 306 484 _c
306 560 _m
384 560 445 534 490 484 _c
534 433 557 363 557 273 _c
557 183 534 113 490 63 _c
445 12 384 -13 306 -13 _c
227 -13 165 12 121 63 _c
77 113 55 183 55 273 _c
55 363 77 433 121 484 _c
165 534 227 560 306 560 _c
_cl}_d
/r{411 0 91 0 411 560 _sc
411 463 _m
401 469 390 473 378 476 _c
366 478 353 480 339 480 _c
288 480 249 463 222 430 _c
194 397 181 350 181 288 _c
181 0 _l
91 0 _l
91 547 _l
181 547 _l
181 462 _l
199 495 224 520 254 536 _c
284 552 321 560 365 560 _c
371 560 378 559 386 559 _c
393 558 401 557 411 555 _c
411 463 _l
_cl}_d
/s{{521 0 54 -13 472 560 _sc
443 531 _m
443 446 _l
417 458 391 468 364 475 _c
336 481 308 485 279 485 _c
234 485 200 478 178 464 _c
156 450 145 430 145 403 _c
145 382 153 366 169 354 _c
185 342 217 330 265 320 _c
296 313 _l
360 299 405 279 432 255 _c
458 230 472 195 472 151 _c
472 100 452 60 412 31 _c
372 1 316 -13 246 -13 _c
216 -13 186 -10 154 -5 _c
122 0 89 8 54 20 _c
54 113 _l
87 95 120 82 152 74 _c
184 65 216 61 248 61 _c
290 61 323 68 346 82 _c
368 96 380 117 380 144 _c
380 168 371 187 355 200 _c
339 213 303 226 247 238 _c
216 245 _l
160 257 119 275 95 299 _c
70 323 58 356 58 399 _c
58 450 76 490 112 518 _c
148 546 200 560 268 560 _c
}_e{301 560 332 557 362 552 _c
391 547 418 540 443 531 _c
_cl}_e}_d
/u{634 0 85 -13 543 560 _sc
85 216 _m
85 547 _l
175 547 _l
175 219 _l
175 167 185 129 205 103 _c
225 77 255 64 296 64 _c
344 64 383 79 411 110 _c
439 141 453 183 453 237 _c
453 547 _l
543 547 _l
543 0 _l
453 0 _l
453 84 _l
431 50 405 26 377 10 _c
348 -5 315 -13 277 -13 _c
214 -13 166 6 134 45 _c
101 83 85 140 85 216 _c
_cl}_d
end readonly def

/BuildGlyph
 {exch begin
 CharStrings exch
 2 copy known not{pop /.notdef}if
 true 3 1 roll get exec
 end}_d

/BuildChar {
 1 index /Encoding get exch get
 1 index /BuildGlyph get exec
}_d

FontName currentdict end definefont pop
end
%%EndProlog
mpldict begin
18 180 translate
576 432 0 0 clipbox
1.000 setlinewidth
1 setlinejoin
2 setlinecap
[] 0 setdash
1.000 setgray
gsave
0 0 m
576 0 l
576 432 l
0 432 l
0 0 l
gsave
fill
grestore
stroke
grestore
gsave
72 43.2 m
518.4 43.2 l
518.4 388.8 l
72 388.8 l
72 43.2 l
fill
grestore
/p0_0 {
newpath
translate
92.2909 325.193 m
92.2909 329.217 l
} bind def
/p0_1 {
newpath
translate
193.745 324.26 m
193.745 328.289 l
} bind def
/p0_2 {
newpath
translate
295.2 323.717 m
295.2 327.925 l
} bind def
/p0_3 {
newpath
translate
396.655 324.049 m
396.655 327.624 l
} bind def
0 setlinecap
0.000 0.000 1.000 setrgbcolor
gsave
446.4 345.6 72 43.2 clipbox
0 0 p0_0
stroke
grestore
gsave
446.4 345.6 72 43.2 clipbox
0 0 p0_1
stroke
grestore
gsave
446.4 345.6 72 43.2 clipbox
0 0 p0_2
stroke
grestore
gsave
446.4 345.6 72 43.2 clipbox
0 0 p0_3
stroke
grestore
/p1_0 {
newpath
translate
92.2909 312.093 m
92.2909 320.492 l
} bind def
/p1_1 {
newpath
translate
193.745 309.724 m
193.745 317.316 l
} bind def
/p1_2 {
newpath
translate
295.2 307.807 m
295.2 316.992 l
} bind def
/p1_3 {
newpath
translate
396.655 308.036 m
396.655 314.29 l
} bind def
0.000 0.500 0.000 setrgbcolor
gsave
446.4 345.6 72 43.2 clipbox
0 0 p1_0
stroke
grestore
gsave
446.4 345.6 72 43.2 clipbox
0 0 p1_1
stroke
grestore
gsave
446.4 345.6 72 43.2 clipbox
0 0 p1_2
stroke
grestore
gsave
446.4 345.6 72 43.2 clipbox
0 0 p1_3
stroke
grestore
/p2_0 {
newpath
translate
92.2909 294.824 m
92.2909 306.588 l
} bind def
/p2_1 {
newpath
translate
193.745 285.056 m
193.745 299.463 l
} bind def
/p2_2 {
newpath
translate
295.2 283.44 m
295.2 297.412 l
} bind def
/p2_3 {
newpath
translate
396.655 283.348 m
396.655 295.719 l
} bind def
1.000 0.000 0.000 setrgbcolor
gsave
446.4 345.6 72 43.2 clipbox
0 0 p2_0
stroke
grestore
gsave
446.4 345.6 72 43.2 clipbox
0 0 p2_1
stroke
grestore
gsave
446.4 345.6 72 43.2 clipbox
0 0 p2_2
stroke
grestore
gsave
446.4 345.6 72 43.2 clipbox
0 0 p2_3
stroke
grestore
/p3_0 {
newpath
translate
92.2909 259.707 m
92.2909 282.273 l
} bind def
/p3_1 {
newpath
translate
193.745 242.948 m
193.745 267.083 l
} bind def
/p3_2 {
newpath
translate
295.2 240.91 m
295.2 265.197 l
} bind def
/p3_3 {
newpath
translate
396.655 239.132 m
396.655 264.371 l
} bind def
0.000 0.750 0.750 setrgbcolor
gsave
446.4 345.6 72 43.2 clipbox
0 0 p3_0
stroke
grestore
gsave
446.4 345.6 72 43.2 clipbox
0 0 p3_1
stroke
grestore
gsave
446.4 345.6 72 43.2 clipbox
0 0 p3_2
stroke
grestore
gsave
446.4 345.6 72 43.2 clipbox
0 0 p3_3
stroke
grestore
/p4_0 {
newpath
translate
92.2909 220.487 m
92.2909 245.989 l
} bind def
/p4_1 {
newpath
translate
193.745 194.218 m
193.745 217.189 l
} bind def
/p4_2 {
newpath
translate
295.2 188.311 m
295.2 215.183 l
} bind def
/p4_3 {
newpath
translate
396.655 181.359 m
396.655 210.691 l
} bind def
0.750 0.000 0.750 setrgbcolor
gsave
446.4 345.6 72 43.2 clipbox
0 0 p4_0
stroke
grestore
gsave
446.4 345.6 72 43.2 clipbox
0 0 p4_1
stroke
grestore
gsave
446.4 345.6 72 43.2 clipbox
0 0 p4_2
stroke
grestore
gsave
446.4 345.6 72 43.2 clipbox
0 0 p4_3
stroke
grestore
/p5_0 {
newpath
translate
92.2909 174.446 m
92.2909 199.571 l
} bind def
/p5_1 {
newpath
translate
193.745 111.878 m
193.745 146.021 l
} bind def
/p5_2 {
newpath
translate
295.2 100.475 m
295.2 135.518 l
} bind def
/p5_3 {
newpath
translate
396.655 82.8403 m
396.655 118.056 l
} bind def
0.750 0.750 0.000 setrgbcolor
gsave
446.4 345.6 72 43.2 clipbox
0 0 p5_0
stroke
grestore
gsave
446.4 345.6 72 43.2 clipbox
0 0 p5_1
stroke
grestore
gsave
446.4 345.6 72 43.2 clipbox
0 0 p5_2
stroke
grestore
gsave
446.4 345.6 72 43.2 clipbox
0 0 p5_3
stroke
grestore
0.500 setlinewidth
0.000 0.000 1.000 setrgbcolor
gsave
446.4 345.6 72 43.2 clipbox
/o {
gsave
newpath
translate
3 -1.83697e-16 m
-3 1.83697e-16 l
stroke
grestore
} bind def
92.2909 325.193 o
193.745 324.26 o
295.2 323.717 o
396.655 324.049 o
grestore
gsave
446.4 345.6 72 43.2 clipbox
/o {
gsave
newpath
translate
3 -1.83697e-16 m
-3 1.83697e-16 l
stroke
grestore
} bind def
92.2909 329.217 o
193.745 328.289 o
295.2 327.925 o
396.655 327.624 o
grestore
1.000 setlinewidth
2 setlinecap
gsave
446.4 345.6 72 43.2 clipbox
92.2909 327.205 m
193.745 326.274 l
295.2 325.821 l
396.655 325.836 l
stroke
grestore
0.500 setlinewidth
0 setlinecap
0.000 0.500 0.000 setrgbcolor
gsave
446.4 345.6 72 43.2 clipbox
/o {
gsave
newpath
translate
3 -1.83697e-16 m
-3 1.83697e-16 l
stroke
grestore
} bind def
92.2909 312.093 o
193.745 309.724 o
295.2 307.807 o
396.655 308.036 o
grestore
gsave
446.4 345.6 72 43.2 clipbox
/o {
gsave
newpath
translate
3 -1.83697e-16 m
-3 1.83697e-16 l
stroke
grestore
} bind def
92.2909 320.492 o
193.745 317.316 o
295.2 316.992 o
396.655 314.29 o
grestore
1.000 setlinewidth
2 setlinecap
gsave
446.4 345.6 72 43.2 clipbox
92.2909 316.292 m
193.745 313.52 l
295.2 312.399 l
396.655 311.163 l
stroke
grestore
0.500 setlinewidth
0 setlinecap
1.000 0.000 0.000 setrgbcolor
gsave
446.4 345.6 72 43.2 clipbox
/o {
gsave
newpath
translate
3 -1.83697e-16 m
-3 1.83697e-16 l
stroke
grestore
} bind def
92.2909 294.824 o
193.745 285.056 o
295.2 283.44 o
396.655 283.348 o
grestore
gsave
446.4 345.6 72 43.2 clipbox
/o {
gsave
newpath
translate
3 -1.83697e-16 m
-3 1.83697e-16 l
stroke
grestore
} bind def
92.2909 306.588 o
193.745 299.463 o
295.2 297.412 o
396.655 295.719 o
grestore
1.000 setlinewidth
2 setlinecap
gsave
446.4 345.6 72 43.2 clipbox
92.2909 300.706 m
193.745 292.26 l
295.2 290.426 l
396.655 289.534 l
stroke
grestore
0.500 setlinewidth
0 setlinecap
0.000 0.750 0.750 setrgbcolor
gsave
446.4 345.6 72 43.2 clipbox
/o {
gsave
newpath
translate
3 -1.83697e-16 m
-3 1.83697e-16 l
stroke
grestore
} bind def
92.2909 259.707 o
193.745 242.948 o
295.2 240.91 o
396.655 239.132 o
grestore
gsave
446.4 345.6 72 43.2 clipbox
/o {
gsave
newpath
translate
3 -1.83697e-16 m
-3 1.83697e-16 l
stroke
grestore
} bind def
92.2909 282.273 o
193.745 267.083 o
295.2 265.197 o
396.655 264.371 o
grestore
1.000 setlinewidth
2 setlinecap
gsave
446.4 345.6 72 43.2 clipbox
92.2909 270.99 m
193.745 255.015 l
295.2 253.054 l
396.655 251.752 l
stroke
grestore
0.500 setlinewidth
0 setlinecap
0.750 0.000 0.750 setrgbcolor
gsave
446.4 345.6 72 43.2 clipbox
/o {
gsave
newpath
translate
3 -1.83697e-16 m
-3 1.83697e-16 l
stroke
grestore
} bind def
92.2909 220.487 o
193.745 194.218 o
295.2 188.311 o
396.655 181.359 o
grestore
gsave
446.4 345.6 72 43.2 clipbox
/o {
gsave
newpath
translate
3 -1.83697e-16 m
-3 1.83697e-16 l
stroke
grestore
} bind def
92.2909 245.989 o
193.745 217.189 o
295.2 215.183 o
396.655 210.691 o
grestore
1.000 setlinewidth
2 setlinecap
gsave
446.4 345.6 72 43.2 clipbox
92.2909 233.238 m
193.745 205.704 l
295.2 201.747 l
396.655 196.025 l
stroke
grestore
0.500 setlinewidth
0 setlinecap
0.750 0.750 0.000 setrgbcolor
gsave
446.4 345.6 72 43.2 clipbox
/o {
gsave
newpath
translate
3 -1.83697e-16 m
-3 1.83697e-16 l
stroke
grestore
} bind def
92.2909 174.446 o
193.745 111.878 o
295.2 100.475 o
396.655 82.8403 o
grestore
gsave
446.4 345.6 72 43.2 clipbox
/o {
gsave
newpath
translate
3 -1.83697e-16 m
-3 1.83697e-16 l
stroke
grestore
} bind def
92.2909 199.571 o
193.745 146.021 o
295.2 135.518 o
396.655 118.056 o
grestore
1.000 setlinewidth
2 setlinecap
gsave
446.4 345.6 72 43.2 clipbox
92.2909 187.008 m
193.745 128.949 l
295.2 117.996 l
396.655 100.448 l
stroke
grestore
0.500 setlinewidth
0 setlinecap
0.000 setgray
gsave
/o {
gsave
newpath
translate
0 0 m
0 4 l
stroke
grestore
} bind def
92.2909 43.2 o
grestore
gsave
/o {
gsave
newpath
translate
0 0 m
0 -4 l
stroke
grestore
} bind def
92.2909 388.8 o
grestore
/DejaVuSans findfont
12.000 scalefont
setfont
72.814 29.903 m
0 0.172 rmoveto
(1 hour) show
gsave
/o {
gsave
newpath
translate
0 0 m
0 4 l
stroke
grestore
} bind def
193.745 43.2 o
grestore
gsave
/o {
gsave
newpath
translate
0 0 m
0 -4 l
stroke
grestore
} bind def
193.745 388.8 o
grestore
171.433 29.903 m
0 0.172 rmoveto
(2 hours) show
gsave
/o {
gsave
newpath
translate
0 0 m
0 4 l
stroke
grestore
} bind def
295.2 43.2 o
grestore
gsave
/o {
gsave
newpath
translate
0 0 m
0 -4 l
stroke
grestore
} bind def
295.2 388.8 o
grestore
272.887 29.903 m
0 0.172 rmoveto
(3 hours) show
gsave
/o {
gsave
newpath
translate
0 0 m
0 4 l
stroke
grestore
} bind def
396.655 43.2 o
grestore
gsave
/o {
gsave
newpath
translate
0 0 m
0 -4 l
stroke
grestore
} bind def
396.655 388.8 o
grestore
374.342 29.903 m
0 0.172 rmoveto
(5 hours) show
gsave
/o {
gsave
newpath
translate
0 0 m
4 0 l
stroke
grestore
} bind def
72 69.7846 o
grestore
gsave
/o {
gsave
newpath
translate
0 0 m
-4 0 l
stroke
grestore
} bind def
518.4 69.7846 o
grestore
gsave
50.500000 65.245553 translate
0.000000 rotate
0.000000 0.171875 m /zero glyphshow
7.634766 0.171875 m /period glyphshow
11.449219 0.171875 m /zero glyphshow
grestore
gsave
/o {
gsave
newpath
translate
0 0 m
4 0 l
stroke
grestore
} bind def
72 122.954 o
grestore
gsave
/o {
gsave
newpath
translate
0 0 m
-4 0 l
stroke
grestore
} bind def
518.4 122.954 o
grestore
gsave
50.906250 118.414784 translate
0.000000 rotate
0.000000 0.171875 m /zero glyphshow
7.634766 0.171875 m /period glyphshow
11.449219 0.171875 m /two glyphshow
grestore
gsave
/o {
gsave
newpath
translate
0 0 m
4 0 l
stroke
grestore
} bind def
72 176.123 o
grestore
gsave
/o {
gsave
newpath
translate
0 0 m
-4 0 l
stroke
grestore
} bind def
518.4 176.123 o
grestore
gsave
50.375000 171.584014 translate
0.000000 rotate
0.000000 0.171875 m /zero glyphshow
7.634766 0.171875 m /period glyphshow
11.449219 0.171875 m /four glyphshow
grestore
gsave
/o {
gsave
newpath
translate
0 0 m
4 0 l
stroke
grestore
} bind def
72 229.292 o
grestore
gsave
/o {
gsave
newpath
translate
0 0 m
-4 0 l
stroke
grestore
} bind def
518.4 229.292 o
grestore
gsave
50.468750 224.753245 translate
0.000000 rotate
0.000000 0.171875 m /zero glyphshow
7.634766 0.171875 m /period glyphshow
11.449219 0.171875 m /six glyphshow
grestore
gsave
/o {
gsave
newpath
translate
0 0 m
4 0 l
stroke
grestore
} bind def
72 282.462 o
grestore
gsave
/o {
gsave
newpath
translate
0 0 m
-4 0 l
stroke
grestore
} bind def
518.4 282.462 o
grestore
gsave
50.531250 277.922476 translate
0.000000 rotate
0.000000 0.171875 m /zero glyphshow
7.634766 0.171875 m /period glyphshow
11.449219 0.171875 m /eight glyphshow
grestore
gsave
/o {
gsave
newpath
translate
0 0 m
4 0 l
stroke
grestore
} bind def
72 335.631 o
grestore
gsave
/o {
gsave
newpath
translate
0 0 m
-4 0 l
stroke
grestore
} bind def
518.4 335.631 o
grestore
gsave
51.015625 331.091707 translate
0.000000 rotate
0.000000 0.171875 m /one glyphshow
7.634766 0.171875 m /period glyphshow
11.449219 0.171875 m /zero glyphshow
grestore
1.000 setlinewidth
2 setlinecap
gsave
72 388.8 m
518.4 388.8 l
stroke
grestore
gsave
518.4 43.2 m
518.4 388.8 l
stroke
grestore
gsave
72 43.2 m
518.4 43.2 l
stroke
grestore
gsave
72 43.2 m
72 388.8 l
stroke
grestore
gsave
423.641 152.951 m
511.2 152.951 l
511.2 279.049 l
423.641 279.049 l
423.641 152.951 l
cl
gsave
1.000 setgray
fill
grestore
stroke
grestore
0.000 0.000 1.000 setrgbcolor
gsave
433.721 267.688 m
453.881 267.688 l
stroke
grestore
0.000 setgray
/DejaVuSans findfont
14.400 scalefont
setfont
469.721 262.445 m
0 0.203 rmoveto
(83 %) show
0.000 0.500 0.000 setrgbcolor
gsave
433.721 246.942 m
453.881 246.942 l
stroke
grestore
0.000 setgray
469.721 241.698 m
0 0.203 rmoveto
(66 %) show
1.000 0.000 0.000 setrgbcolor
gsave
433.721 226.195 m
453.881 226.195 l
stroke
grestore
0.000 setgray
469.721 220.952 m
0 0.203 rmoveto
(50 %) show
0.000 0.750 0.750 setrgbcolor
gsave
433.721 205.448 m
453.881 205.448 l
stroke
grestore
0.000 setgray
469.721 200.205 m
0 0.203 rmoveto
(33 %) show
0.750 0.000 0.750 setrgbcolor
gsave
433.721 184.701 m
453.881 184.701 l
stroke
grestore
0.000 setgray
469.721 179.458 m
0 0.203 rmoveto
(16 %) show
0.750 0.750 0.000 setrgbcolor
gsave
433.721 163.954 m
453.881 163.954 l
stroke
grestore
0.000 setgray
469.721 158.711 m
0 0.203 rmoveto
(0 %) show

end
showpage
