%!PS-Adobe-2.0 EPSF-1.2
%%Creator: MATLAB, The MathWorks, Inc. Version 8.0.0.783 (R2012b). Operating System: Linux 2.6.32-279.5.1.el6.x86_64 #1 SMP Tue Aug 14 16:11:42 CDT 2012 x86_64.
%%Title: ./w_s_s.eps
%%CreationDate: 12/19/2013  16:04:22
%%DocumentNeededFonts: Helvetica
%%DocumentProcessColors: Cyan Magenta Yellow Black
%%Pages: 1
%%BoundingBox:    42   183   547   596
%%EndComments

%%BeginProlog
% MathWorks dictionary
/MathWorks 160 dict begin
% definition operators
/bdef {bind def} bind def
/ldef {load def} bind def
/xdef {exch def} bdef
/xstore {exch store} bdef
% operator abbreviations
/c  /clip ldef
/cc /concat ldef
/cp /closepath ldef
/gr /grestore ldef
/gs /gsave ldef
/mt /moveto ldef
/np /newpath ldef
/cm /currentmatrix ldef
/sm /setmatrix ldef
/rm /rmoveto ldef
/rl /rlineto ldef
/s {show newpath} bdef
/sc {setcmykcolor} bdef
/sr /setrgbcolor ldef
/sg /setgray ldef
/w /setlinewidth ldef
/j /setlinejoin ldef
/cap /setlinecap ldef
/rc {rectclip} bdef
/rf {rectfill} bdef
% page state control
/pgsv () def
/bpage {/pgsv save def} bdef
/epage {pgsv restore} bdef
/bplot /gsave ldef
/eplot {stroke grestore} bdef
% orientation switch
/portraitMode 0 def /landscapeMode 1 def /rotateMode 2 def
% coordinate system mappings
/dpi2point 0 def
% font control
/FontSize 0 def
/FMS {/FontSize xstore findfont [FontSize 0 0 FontSize neg 0 0]
  makefont setfont} bdef
/reencode {exch dup where {pop load} {pop StandardEncoding} ifelse
  exch dup 3 1 roll findfont dup length dict begin
  { 1 index /FID ne {def}{pop pop} ifelse } forall
  /Encoding exch def currentdict end definefont pop} bdef
/isroman {findfont /CharStrings get /Agrave known} bdef
/FMSR {3 1 roll 1 index dup isroman {reencode} {pop pop} ifelse
  exch FMS} bdef
/csm {1 dpi2point div -1 dpi2point div scale neg translate
 dup landscapeMode eq {pop -90 rotate}
  {rotateMode eq {90 rotate} if} ifelse} bdef
% line types: solid, dotted, dashed, dotdash
/SO { [] 0 setdash } bdef
/DO { [.5 dpi2point mul 4 dpi2point mul] 0 setdash } bdef
/DA { [6 dpi2point mul] 0 setdash } bdef
/DD { [.5 dpi2point mul 4 dpi2point mul 6 dpi2point mul 4
  dpi2point mul] 0 setdash } bdef
% macros for lines and objects
/L {lineto stroke} bdef
/MP {3 1 roll moveto 1 sub {rlineto} repeat} bdef
/AP {{rlineto} repeat} bdef
/PDlw -1 def
/W {/PDlw currentlinewidth def setlinewidth} def
/PP {closepath eofill} bdef
/DP {closepath stroke} bdef
/MR {4 -2 roll moveto dup  0 exch rlineto exch 0 rlineto
  neg 0 exch rlineto closepath} bdef
/FR {MR stroke} bdef
/PR {MR fill} bdef
/L1i {{currentfile picstr readhexstring pop} image} bdef
/tMatrix matrix def
/MakeOval {newpath tMatrix currentmatrix pop translate scale
0 0 1 0 360 arc tMatrix setmatrix} bdef
/FO {MakeOval stroke} bdef
/PO {MakeOval fill} bdef
/PD {currentlinewidth 2 div 0 360 arc fill
   PDlw -1 eq not {PDlw w /PDlw -1 def} if} def
/FA {newpath tMatrix currentmatrix pop translate scale
  0 0 1 5 -2 roll arc tMatrix setmatrix stroke} bdef
/PA {newpath tMatrix currentmatrix pop	translate 0 0 moveto scale
  0 0 1 5 -2 roll arc closepath tMatrix setmatrix fill} bdef
/FAn {newpath tMatrix currentmatrix pop translate scale
  0 0 1 5 -2 roll arcn tMatrix setmatrix stroke} bdef
/PAn {newpath tMatrix currentmatrix pop translate 0 0 moveto scale
  0 0 1 5 -2 roll arcn closepath tMatrix setmatrix fill} bdef
/vradius 0 def /hradius 0 def /lry 0 def
/lrx 0 def /uly 0 def /ulx 0 def /rad 0 def
/MRR {/vradius xdef /hradius xdef /lry xdef /lrx xdef /uly xdef
  /ulx xdef newpath tMatrix currentmatrix pop ulx hradius add uly
  vradius add translate hradius vradius scale 0 0 1 180 270 arc 
  tMatrix setmatrix lrx hradius sub uly vradius add translate
  hradius vradius scale 0 0 1 270 360 arc tMatrix setmatrix
  lrx hradius sub lry vradius sub translate hradius vradius scale
  0 0 1 0 90 arc tMatrix setmatrix ulx hradius add lry vradius sub
  translate hradius vradius scale 0 0 1 90 180 arc tMatrix setmatrix
  closepath} bdef
/FRR {MRR stroke } bdef
/PRR {MRR fill } bdef
/MlrRR {/lry xdef /lrx xdef /uly xdef /ulx xdef /rad lry uly sub 2 div def
  newpath tMatrix currentmatrix pop ulx rad add uly rad add translate
  rad rad scale 0 0 1 90 270 arc tMatrix setmatrix lrx rad sub lry rad
  sub translate rad rad scale 0 0 1 270 90 arc tMatrix setmatrix
  closepath} bdef
/FlrRR {MlrRR stroke } bdef
/PlrRR {MlrRR fill } bdef
/MtbRR {/lry xdef /lrx xdef /uly xdef /ulx xdef /rad lrx ulx sub 2 div def
  newpath tMatrix currentmatrix pop ulx rad add uly rad add translate
  rad rad scale 0 0 1 180 360 arc tMatrix setmatrix lrx rad sub lry rad
  sub translate rad rad scale 0 0 1 0 180 arc tMatrix setmatrix
  closepath} bdef
/FtbRR {MtbRR stroke } bdef
/PtbRR {MtbRR fill } bdef
/stri 6 array def /dtri 6 array def
/smat 6 array def /dmat 6 array def
/tmat1 6 array def /tmat2 6 array def /dif 3 array def
/asub {/ind2 exch def /ind1 exch def dup dup
  ind1 get exch ind2 get sub exch } bdef
/tri_to_matrix {
  2 0 asub 3 1 asub 4 0 asub 5 1 asub
  dup 0 get exch 1 get 7 -1 roll astore } bdef
/compute_transform {
  dmat dtri tri_to_matrix tmat1 invertmatrix 
  smat stri tri_to_matrix tmat2 concatmatrix } bdef
/ds {stri astore pop} bdef
/dt {dtri astore pop} bdef
/db {2 copy /cols xdef /rows xdef mul dup string
  currentfile exch readhexstring pop
  /bmap xdef pop pop} bdef
/it {gs np dtri aload pop moveto lineto lineto cp c
  cols rows 8 compute_transform 
  {bmap} image gr}bdef
/il {newpath moveto lineto stroke}bdef
currentdict end def
%%EndProlog

%%BeginSetup
MathWorks begin

0 cap

end
%%EndSetup

%%Page: 1 1
%%BeginPageSetup
%%PageBoundingBox:    42   183   547   596
MathWorks begin
bpage
%%EndPageSetup

%%BeginObject: obj1
bplot

/dpi2point 12 def
portraitMode 0216 7344 csm

  295   192  6064  4945 MR c np
85 dict begin %Colortable dictionary
/c0 { 0.000000 0.000000 0.000000 sr} bdef
/c1 { 1.000000 1.000000 1.000000 sr} bdef
/c2 { 0.900000 0.000000 0.000000 sr} bdef
/c3 { 0.000000 0.820000 0.000000 sr} bdef
/c4 { 0.000000 0.000000 0.800000 sr} bdef
/c5 { 0.910000 0.820000 0.320000 sr} bdef
/c6 { 1.000000 0.260000 0.820000 sr} bdef
/c7 { 0.000000 0.820000 0.820000 sr} bdef
c0
1 j
1 sg
   0    0 6913 5186 PR
6 w
0 4226 5356 0 0 -4226 899 4615 4 MP
PP
-5356 0 0 4226 5356 0 0 -4226 899 4615 5 MP stroke
4 w
DO
SO
6 w
0 sg
 899 4615 mt 6255 4615 L
 899  389 mt 6255  389 L
 899 4615 mt  899  389 L
6255 4615 mt 6255  389 L
 899 4615 mt 6255 4615 L
 899 4615 mt  899  389 L
1970 4615 mt 1970 4561 L
1970  389 mt 1970  442 L
%%IncludeResource: font Helvetica
/Helvetica /ISOLatin1Encoding 216 FMSR

1850 4850 mt 
(60) s
3041 4615 mt 3041 4561 L
3041  389 mt 3041  442 L
2861 4850 mt 
(120) s
4112 4615 mt 4112 4561 L
4112  389 mt 4112  442 L
3932 4850 mt 
(180) s
5183 4615 mt 5183 4561 L
5183  389 mt 5183  442 L
5003 4850 mt 
(240) s
 899 4615 mt  952 4615 L
6255 4615 mt 6201 4615 L
 744 4695 mt 
(0) s
 899 4086 mt  952 4086 L
6255 4086 mt 6201 4086 L
 744 4166 mt 
(5) s
 899 3558 mt  952 3558 L
6255 3558 mt 6201 3558 L
 624 3638 mt 
(10) s
 899 3030 mt  952 3030 L
6255 3030 mt 6201 3030 L
 624 3110 mt 
(15) s
 899 2502 mt  952 2502 L
6255 2502 mt 6201 2502 L
 624 2582 mt 
(20) s
 899 1973 mt  952 1973 L
6255 1973 mt 6201 1973 L
 624 2053 mt 
(25) s
 899 1445 mt  952 1445 L
6255 1445 mt 6201 1445 L
 624 1525 mt 
(30) s
 899  917 mt  952  917 L
6255  917 mt 6201  917 L
 624  997 mt 
(35) s
 899  389 mt  952  389 L
6255  389 mt 6201  389 L
 624  469 mt 
(40) s
 899 4615 mt 6255 4615 L
 899  389 mt 6255  389 L
 899 4615 mt  899  389 L
6255 4615 mt 6255  389 L
gs 899 389 5357 4227 MR c np
0 745 1970 2287 2 MP stroke
64 0 1938 2287 2 MP stroke
64 0 1938 3032 2 MP stroke
0 835 3041 2784 2 MP stroke
64 0 3009 2784 2 MP stroke
64 0 3009 3619 2 MP stroke
0 559 4112 3886 2 MP stroke
64 0 4080 3886 2 MP stroke
64 0 4080 4445 2 MP stroke
0 571 5183 3893 2 MP stroke
64 0 5151 3893 2 MP stroke
64 0 5151 4464 2 MP stroke
1071 14 1071 964 1071 541 1970 2660 4 MP stroke
0 682 1970 2293 2 MP stroke
64 0 1938 2293 2 MP stroke
64 0 1938 2975 2 MP stroke
0 914 3041 2335 2 MP stroke
64 0 3009 2335 2 MP stroke
64 0 3009 3249 2 MP stroke
0 462 4112 2561 2 MP stroke
64 0 4080 2561 2 MP stroke
64 0 4080 3023 2 MP stroke
0 761 5183 2504 2 MP stroke
64 0 5151 2504 2 MP stroke
64 0 5151 3265 2 MP stroke
1071 92 1071 0 1071 158 1970 2634 4 MP stroke
gr

1800 5064 mt 
(Interval between memories \(minutes\)) s
 521 4085 mt  -90 rotate
(% of recruited pyramidal neurons) s
90 rotate
 869 4693 mt 
( ) s
6226  466 mt 
( ) s
1 sg
0 556 1988 0 0 -556 4208 1006 4 MP
PP
-1988 0 0 556 1988 0 0 -556 4208 1006 5 MP stroke
4 w
DO
SO
6 w
0 sg
4208 1006 mt 6196 1006 L
4208  450 mt 6196  450 L
4208 1006 mt 4208  450 L
6196 1006 mt 6196  450 L
4208 1006 mt 6196 1006 L
4208 1006 mt 4208  450 L
4208 1006 mt 6196 1006 L
4208  450 mt 6196  450 L
4208 1006 mt 4208  450 L
6196 1006 mt 6196  450 L
4644  674 mt 
(Strong memory) s
gs 4208 450 1989 557 MR c np
335 0 4275 596 2 MP stroke
gr

4644  937 mt 
(Weak memory) s
gs 4208 450 1989 557 MR c np
335 0 4275 859 2 MP stroke
gr


end %%Color Dict

eplot
%%EndObject

epage
end

showpage

%%Trailer
%%EOF
