\relax 
\@writefile{toc}{\contentsline {section}{\numberline {1}Introduction}{1}}
\@writefile{toc}{\contentsline {section}{\numberline {2}Introduction}{2}}
\@writefile{toc}{\contentsline {section}{\numberline {3}Methods}{2}}
\@writefile{toc}{\contentsline {subsection}{\numberline {3.1}Integration model}{2}}
\newlabel{membrane-eq}{{3.1}{3}}
\newlabel{adaptation-eq}{{3.1}{3}}
\@writefile{toc}{\contentsline {subsection}{\numberline {3.2}Calcium modeling}{4}}
\@writefile{toc}{\contentsline {subsection}{\numberline {3.3}Intrinsic plasticity}{5}}
\@writefile{toc}{\contentsline {subsection}{\numberline {3.4}Homeostatic plasticity:}{6}}
\@writefile{toc}{\contentsline {subsection}{\numberline {3.5}Stimulation Protocol:}{6}}
\@writefile{toc}{\contentsline {section}{\numberline {4}Results}{7}}
\@writefile{toc}{\contentsline {subsection}{\numberline {4.1}Memory Encoding}{7}}
\@writefile{toc}{\contentsline {subsection}{\numberline {4.2}Encoding sequential memories}{8}}
\@writefile{toc}{\contentsline {subsection}{\numberline {4.3}Contribution of dendritic nonlinearities}{8}}
\bibstyle{apalike}
\bibdata{gkbiblio}
\@writefile{toc}{\contentsline {subsection}{\numberline {4.4}Recall of memories from partial cues}{9}}
\@writefile{toc}{\contentsline {section}{\numberline {5}Discussion}{9}}
